"강좌 ID","제목","대상","시작일","종료일","장소","요금","인원","모집시작일","모집종료일","전화번호1","전화번호2","전화번호3","모집방법","모집상태","신청인원","요일/시간"
"2701","책을 지키는 사람들(2020.2.10. - 신종 코로나바이러스 감염증 확산 방지를 위한 취소)","서울시민 50명","20200215","20200215","서울도서관 4층 사서교육장","무료","50","20200204","20200209","02","2133","0242","홈페이지(인터넷) 선착순 접수","마감","0","토요일 오후 2시 ~ 4시"
"2661","극적반전 위기를 기회로 바꾼 사람들의 이야기","관심있는 시민 누구나","20191205","20191205","서울시립대학교 백주년기념관","무료 강연","300","20191202","20191205","02","2133","0226","","마감","6","19시~21시"
"2642","무정에세이 부희령 작가와의 만남","시민","20191129","20191129","서울도서관 4층 사서교육장","무료","50","20191120","20191128","02","2133","0242","홈페이지(인터넷) 선착순 접수","마감","57","금요일 저녁 7시 ~ 9시"
"2601","서울 탄생기 저자 강연","서울시민 50여명","20191127","20191127","서울도서관 4층 사서교육장","무료","50","20191112","20191125","02","2133","0306","선착순","마감","40","수요일 19:00~21:00"
"2621","[ 터닝포인트] 서울도서관 X CBS 씨리얼 사람-책 강연회","서울시민 100명","20191123","20191123","서울도서관 1층 정문 계단","무료","100","20191115","20191123","02","2133","0226","선착순","마감","4","토요일 18시~20시"
"2581","사진으로 세계 읽기 ","서울시민 누구나","20191115","20191115","서울도서관 4층 사서교육장","무료","40","20191101","20191114","02","2133","0308","홈페이지(인터넷) 선착순 접수","마감","48","금요일 19:00~21:00"
"2522","2020 포스트 휴먼이 몰려온다","시민 50여명","20191015","20191203","4층 사서교육장","무료","50","20190924","20191008","02","2133","0242","선착순","마감","58","화요일 19시~21시"
"2521","50+(50-64세) 책과함께 있다: 독서프로그램","신중년(50세-64세)","20191001","20191105","서울도서관 4층 사서교육장","무료","30","20190918","20190929","02","2133","0241","","마감","25","매주화요일 14:00~17:00"
"2481","한국수어 입문교육","서울시민 누구나","20190904","20191113","서울도서관 4층 사서교육장","무료","20","20190806","20190823","02","2133","0263","선착순","마감","30","매주 수요일 19:00~20:30"
"2501","공부의 미래 구본권 작가와의 만남 ","시민","20190823","20190823","서울도서관 4층 사서교육장","무료","50","20190807","20190821","02","2133","0242","","마감","56","19시~21시"
"2461","꿈과 희망을 하늘로 우주로 전시 연계 강연-2강-","시민 50여명","20190822","20190829","서울도서관 4층 사서교육장 ","무료","50","20190805","20190820","02","2133","0242","선착순","마감","41","목요일 19시~21시 2회"
"2441","기생충 박사 서민 교수의 -글쓰기와 독서-","시민 및 직원","20190808","20190808","서울 시청 본관 3층 대회의실","무료","100","20190719","20190805","02","2133","0242","선착순 모집 ","마감","109","목요일 14시~17시"
"2421","서양 고전의 탄생","시민 50여명 ","20190730","20191001","서울도서관 4층 사서교육장","무료","50","20190710","20190724","02","2133","0242","선착순 모집 ","마감","58","화요일 저녁 19시~21시"
"2401","판타지 동시문학의 세계-신현득 작가 강연","시민 50여명","20190705","20190705","서울도서관 4층 사서교육장","무료","50","20190625","20190703","02","2133","0242","선착순","마감","28","금요일 15~17시"
"2361","서울 백년 가게","시민 50여명","20190627","20190627","서울도서관 4층 사서교육장","무료","50","20190610","20190621","02","2133","0242","선착순","마감","40","목요일 19시~21시"
"2381","오늘 만나는 동양고전- 추가 모집- ","시민 20여명 ","20190625","20190716","서울도서관 4층 사서교육장","무료","20","20190618","20190624","02","2133","0242","선착순 ","마감","12","매주 화요일 19시~21시 "
"2341","누가 결정하는가?- 명저를 만나다 전시 연계 강연 ","시민50여명","20190608","20190608","서울도서관 4층 사서교육장","무료","50","20190528","20190605","02","2133","0242","선착순 모집","마감","58","토요일"
"2321","어르신 오늘을 누리다","65세이상 어르신","20190604","20190716","서울도서관 4층 사서교육장","무료","30","20190524","20190530","02","2133","0241","","마감","40","매주화요일(오전 10시 ~12시)"
"2301","오늘 만나는 동양고전-8강-","시민 50여명","20190528","20190716","서울도서관 4층 사서교육장","무료","50","20190510","20190524","02","2133","0242","선착순모집","마감","56","매주 화요일 19시~20시30분"
"2302","무너진 나라 다시 세운 나라-전시연계강연-","시민50여명","20190523","20190523","서울도서관 4층 사서교육장","무료","50","20190513","20190522","02","2133","0242","선착순 모집","마감","21","목요일 19:00~20:30"
"2281","사소한 것들의 구원 저자 강연","시민","20190502","20190502","서울도서관 4층 사서교육장","무료","50","20190419","20190430","02","2133","0242","선착순 모집","마감","49","목요일 19시~20시30분"
"2261","파리의 독립운동가 서영해의 독립운동과 삶","서울시민","20190321","20190321","서울도서관 4층 사서교육장","무료","50","20190312","20190320","02","2133","0242","선착순신청","마감","22","목요일 19:00~20:30"
"2241","에릭 파이(?ric Faye) 작가와 김탁환 작가의 만남","서울시민 누구나","20190218","20190218","서울도서관 생각마루","무료","80","20190207","20190217","02","2133","0308","홈페이지(인터넷) 선착순 접수","마감","76","월요일 16:00~17:30"
"2203","[4강] 대하소설 '토지'가 당신에게 건네는 말","서울시민 50명 선착순 모집","20181220","20181220","서울도서관 4층 사서교육장","무료","50","20181120","20181219","02","2133","0243","서울도서관 홈페이지 신청","마감","39","목요일 19:00 ~ 20:40"
"2202","[3강] 대하소설 '토지'가 당신에게 건네는 말","서울시민 50명 선착순 모집","20181213","20181213","서울도서관 4층 사서교육장","무료","50","20181120","20181213","02","2133","0243","서울도서관 홈페이지 신청","마감","41","목요일 19:00 ~ 20:40"
"2221","이슈가 있는 사람-이상교 작가와 함께하는 북콘서트","서울시민 누구나","20181210","20181210","서울도서관 생각마루","무료","150","20181126","20181209","02","2133","0246","홈페이지(인터넷) 선착순 접수","마감","58","월요일 16:00~17:30"
"2201","[2강] 대하소설 '토지'가 당신에게 건네는 말","서울시민 50명 선착순 모집","20181206","20181206","서울도서관 4층 사서교육장","무료","50","20181120","20181206","02","2133","0243","서울도서관 홈페이지 신청","마감","39","목요일 19:00 ~ 20:40"
"2181","<평양의 시간은 서울의 시간과 함께 흐른다>저자 강연회","시민 누구나","20181204","20181204","서울도서관 4층 사서교육장","무료","50","20181119","20181204","02","2133","0306","서울도서관 홈페이지","마감","45","2018.12.04.(화) 19:00~21:00"
"2182","[1강] 대하소설 '토지'가 당신에게 건네는 말 ","서울시민 50명 선착순 모집","20181129","20181129","서울도서관 4층 사서교육장","무료","50","20181120","20181129","02","2133","0243","서울도서관 홈페이지 신청","마감","46","목요일 19:00 ~ 21:00"
"2161","[문화가 있는 날/강연] 내 마음에게 말을 걸다 : 박상미 작가와의 만남","서울시민 누구나","20181128","20181128","서울도서관 4층 사서교육장","무료","40","20181114","20181128","02","2133","0243","서울도서관 홈페이지 내 신청","마감","43","수요일 19:00 ~ 20:30"
"2123","[3강] 따뜻한 관계 맺기 : 11월 목요대중강좌","서울시민 50명 선착순 모집","20181122","20181122","서울도서관 4층 사서교육장","무료","55","20181025","20181122","02","2133","0246","서울도서관 홈페이지 신청","마감","50","목요일 19:00 ~ 21:00"
"2141","<생각이 바뀌면 삶이 바뀐다> : 김경집 저자와의 만남","서울시민(성인) 누구나","20181120","20181120","서울도서관 4층 사서교육장","무료","40","20181106","20181119","02","2133","0243","서울도서관 홈페이지 신청","마감","39","화요일 19:00 ~ 21:00"
"2122","[2강] 진정한 어른이 되는 길 : 11월 목요대중강좌","서울시민 50명 선착순 모집","20181115","20181115","서울도서관 4층 사서교육장","무료","55","20181025","20181115","02","2133","0246","서울도서관 홈페이지 신청","마감","44","목요일 19:00 ~ 21:00"
"2121","[1강] 자기감정과 마주하기 : 11월 목요대중강좌","서울시민 50명 선착순 모집","20181108","20181108","서울도서관 4층 사서교육장","무료","55","20181025","20181107","02","2133","0243","서울도서관 홈페이지 신청","마감","51","목요일 19:00 ~ 20:30"
"2042","[3강] 클래식음악 어떻게 들을 것인가? -  모짜르트와 베토벤을 중심으로 : 10월 목요대중강좌","서울시민 누구나(성인)","20181025","20181025","서울도서관 4층 사서교육장","무료","50","20180927","20181025","02","2133","0246","서울도서관 홈페이지 신청","마감","52","목요일 19:00 ~ 21:00"
"2081","<서울선언:문헌학자 김시덕의 서울걷기> 저자 강연회","시민 누구나","20181023","20181023","서울도서관 4층 사서교육장","무료","40","20181008","20181022","02","2133","0306","서울도서관 홈페이지 신청","마감","48","2018.10.23(화) 19:00~21:00"
"2101","'홍순민의 한양읽기-궁궐' 홍순민 작가와의 만남 : 10월 기획전시 연계 강연","서울시민 누구나(성인)","20181019","20181019","서울도서관 4층 사서교육장","무료","40","20181010","20181019","02","2133","0246","홈페이지(인터넷) 선착순 접수","마감","45","금요일 19:00 ~ 21:00"
"2041","[2강] 서양고전음악의 거장들 : 10월 목요대중강좌","서울시민 누구나(성인)","20181018","20181018","서울도서관 4층 사서교육장","무료","50","20180927","20181018","02","2133","0246","서울도서관 홈페이지 신청","마감","57","목요일 19:00 ~ 21:00"
"2021","[1강] 다시 듣는 클래식 : 10월 목요대중강좌","서울시민 누구나(성인)","20181011","20181011","서울도서관 4층 사서교육장","무료","55","20180927","20181010","02","2133","0246","서울도서관 홈페이지 신청","마감","56","목요일 19:00 ~ 21:00"
"2001","독서정담(讀書情談): 2018 하반기 어르신 치매예방 독서토론 프로그램 ","65세 이상 어르신 20명","20180928","20181130","서울도서관 4층 사서교육장","무료","20","20180918","20180927","02","2133","0243","서울도서관 홈페이지 접수 및 전화접수","마감","21","매주 금요일 오전 10시~12시"
"1982","<읽기의 말들> 박총 작가와의 만남 독서의 여정: 독서와 생활은 서로를 어떻게 빚어 가는가","서울시민 누구나","20180928","20180928","서울도서관 4층 사서교육장","무료","50","20180908","20180928","02","2133","0243","서울도서관 홈페이지 신청","마감","41","금요일 19:00 ~ 20:30"
"1904","[3강]치유의 독서 : 9월 목요대중강좌","서울시민 누구나","20180920","20180920","서울도서관 4층 사서교육장","무료","60","20180824","20180920","02","2133","0246","홈페이지(인터넷) 선착순 접수","마감","47","목요일 저녁 7시~9시"
"1961","영상번역가로 산다는 것","서울시민(성인)","20180918","20180918","서울도서관 4층 사서교육장","무료","40","20180904","20180916","02","2133","0304","홈페이지(인터넷) 선착순 접수","마감","37","화요일 저녁 7시~8시 30분"
"1981","<에세이를 써보고 싶으세요?> 김은경 작가와의 만남:  재미있고 감각적인 에세이 쓰는 법","서울시민 누구나","20180914","20180914","서울도서관 4층 사서교육장","무료","50","20180908","20180913","02","2133","0246","서울도서관 홈페이지 신청","마감","48","금요일 19시~20시 30분"
"1941","[2강]치유의 독서 : 9월 목요대중강좌","서울시민 누구나","20180913","20180913","서울도서관 4층 사서교육장","무료","60","20180824","20180913","02","2133","0246","홈페이지(인터넷) 선착순 접수","마감","47","목요일 저녁 7시~9시"
"1902","연암에게 배우는 잉여시대 사는 법","서울시민 누구나","20180912","20180912","서울시민청 태평홀(지하 2층)","무료","100","20180822","20180911","02","2133","0243","서울도서관 홈페이지 모집","마감","103","수요일 19:00 ~ 20:30"
"1903","[1강]치유의 독서 : 9월 목요대중강좌","서울시민 누구나","20180906","20180906","서울도서관 4층 사서교육장","무료","50","20180824","20180906","02","2133","0246","홈페이지(인터넷) 선착순 접수","마감","33","목요일 저녁 7시~9시"
"1861","수어교육(기초반)","시민 누구나","20180905","20181121","서울도서관 4층 사서교육장","무료","20","20180730","20180824","02","2133","0264","홈페이지(인터넷) 선착순 접수","마감","37","매주 수요일/저녁7시~8시30분"
"1881","수어교육(중급반)","시민 누구나","20180905","20181121","시민청 동그라미방","무료","20","20180730","20180824","02","2133","0264","홈페이지(인터넷) 선착순 접수","마감","40","매주 수요일/저녁 6시30분~8시"
"1921","지금이라는 참 좋은 시절","서울시민 누구나(성인)","20180904","20180904","서울도서관 4층 사서교육장","무료","40","20180820","20180903","02","2133","0243","서울도서관 홈페이지","마감","34","화요일 19:00 ~ 20:30"
"1901","나를 돌보는 시간 그림책테라피","서울시민 누구나(성인)","20180830","20180830","서울도서관 4층 사서교육장","무료","20","20180820","20180829","02","2133","0243","서울도서관 홈페이지 ","마감","21","목요일 19:00~20:30"
"1841","임정진 작가와의 만남 : 7월 기획전시 연계 강연","서울시민 누구나","20180727","20180727","서울도서관 4층 사서교육장","무료","50","20180716","20180727","02","2133","0246","홈페이지(인터넷) 선착순 접수","마감","21","금요일 저녁 7시~9시"
"1821","[3강]자연의 역습 : 7월 목요대중강좌","서울시민 누구나","20180726","20180726","서울도서관 4층 사서교육장","무료","50","20180626","20180726","02","2133","0246","홈페이지(인터넷) 선착순 접수","마감","30","목요일 저녁 7시~9시"
"1802","   [2강]자연의 역습 : 7월 목요대중강좌","서울시민 누구나","20180719","20180719","서울도서관 4층 사서교육장","무료","50","20180626","20180719","02","2133","0246","홈페이지(인터넷) 선착순 접수","마감","28","목요일 저녁 7시~9시"
"1801","[1강]자연의 역습 : 7월 목요대중강좌","서울시민 누구나","20180712","20180712","서울도서관 4층 사서교육장","무료","50","20180626","20180712","02","2133","0246","홈페이지(인터넷) 선착순 접수","마감","25","목요일 저녁 7시~9시"
"1781","[2강]월북미술인들의 삶과 예술 : 7월 기획전시 연계 강연","서울시민 누구나","20180710","20180710","서울도서관 4층 사서교육장","무료","50","20180619","20180710","02","2133","0246","홈페이지(인터넷) 선착순 접수","마감","43","화요일 저녁 7시~9시"
"1761","[1강]북한영화 이해하기 : 7월 기획전시 연계 강연","서울시민 누구나","20180703","20180703","서울도서관 4층 사서교육장","무료","50","20180619","20180703","02","2133","0246","홈페이지(인터넷) 선착순 접수","마감","28","화요일 저녁 7시~9시"
"1722","[3강] 食의 역사 食의 문화 : 6월 목요대중강좌","서울시민 누구나","20180628","20180628","서울도서관 4층 사서교육장","무료","50","20180529","20180628","02","2133","0246","홈페이지(인터넷) 선착순 접수","마감","40","목요일 저녁 7시~9시"
"1741","정여울의 읽기와 쓰기","서울시민 누구나(성인)","20180627","20180627","시민청 태평홀(지하 2층)","무료","100","20180601","20180626","02","2133","0243","홈페이지 신청 ","마감","101","수요일 19:00 ~ 20:30"
"1721","[2강] 食의 역사 食의 문화 : 6월 목요대중강좌","서울시민 누구나","20180621","20180621","서울도서관 4층 사서교육장","무료","50","20180529","20180621","02","2133","0246","홈페이지(인터넷) 선착순 접수","마감","43","목요일 저녁 7시~9시"
"1701","[1강] 食의 역사 食의 문화 : 6월 목요대중강좌","서울시민 누구나","20180614","20180614","서울도서관 4층 사서교육장","무료","50","20180529","20180614","02","2133","0246","홈페이지(인터넷) 선착순 접수","마감","48","목요일 저녁 7시~9시"
"1664","[3강] 단 한 번뿐인 인생(YOLO) : 5월 목요대중강좌","서울시민 누구나","20180531","20180531","서울도서관 4층 사서교육장","무료","50","20180501","20180531","02","2133","0246","홈페이지(인터넷) 선착순 접수","마감","49","목요일 저녁 7시~9시"
"1663","[2강] 단 한 번뿐인 인생(YOLO) : 5월 목요대중강좌","서울시민 누구나","20180524","20180524","서울도서관 4층 사서교육장","무료","50","20180501","20180523","02","2133","0246","홈페이지(인터넷) 선착순 접수","마감","48","목요일 저녁 7시~9시"
"1683","[1강] 단 한 번뿐인 인생(YOLO) : 5월 목요대중강좌","서울시민 누구나","20180517","20180517","서울도서관 4층 사서교육장","무료","50","20180501","20180517","02","2133","0246","홈페이지(인터넷) 선착순 접수","마감","35","목요일 저녁 7시~9시"
"1681","카프카의 <변신>을 읽다","성인 누구나","20180515","20180515","서울도서관 4층 사서교육장","무료","40","20180501","20180514","02","2133","0308","홈페이지","마감","47","화요일 저녁 7시 ~ 8시 30분"
"1661","우리가 모르는 우리들의 이야기 : 양경수 작가와의 만남","서울시민 누구나","20180510","20180510","서울도서관 4층 사서교육장","무료","40","20180430","20180510","02","2133","0243","홈페이지 강좌신청에서 선착순 접수","마감","33","목요일 저녁 7:00 ~ 8:30"
"1621","수어교실 (기초반A)","시민 누구나","20180502","20180718","서울도서관 사서교육장","무료","20","20180404","20180418","02","2133","0264","홈페이지(인터넷) 선착순 접수","마감","26","매주 수요일/ 저녁 7시~8시30분"
"1622","수어교실 (기초반B)","시민 누구나","20180502","20180718","서울시청 시민청 동그라미방","무료","20","20180404","20180418","02","2133","0264","홈페이지(인터넷) 선착순 접수","마감","23","매주 수요일/ 저녁 7시~8시30분"
"1641","2018 상반기 꿈꾸는 어르신의 행복한 책 읽기","65세 이상 어르신 ","20180427","20180713","서울도서관 사서교육장(4층)","무료","20","20180410","20180426","02","2133","0243","홈페이지 강좌신청 및 2층 안내데스크 현장 접수","마감","22","매주 금요일 오전 10:00 ~ 12:00"
"1601","기자와 요리사의 눈으로 바라본 유럽의 맛","서울시민 누구나(성인)","20180413","20180413","서울도서관 4층 사서교육장","무료","40","20180403","20180412","02","2133","0304","홈페이지(인터넷) 선착순 접수","마감","44","금요일 저녁 7시~8시 30분"
"1581","2017년 공쿠르 신인상 수상 작가 마리암 마지디와의 만남","서울시민 누구나(성인)","20180329","20180329","서울도서관 4층 사서교육장","무료","40","20180317","20180328","02","2133","0308","홈페이지(인터넷) 선착순 접수","마감","38","목요일 저녁 7시~8시반"
"1541","백세 시대를 준비하는 건강 공부(2강) : 미세먼지와 화학물질에서 살아남기","서울시민 누구나(성인)","20180321","20180321","서울도서관 4층 사서교육장","무료","40","20180221","20180320","02","2133","0243","홈페이지(인터넷) 선착순 접수","마감","44","수요일 저녁 7시~9시 "
"1521","백세 시대를 준비하는 건강 공부(1강) : 무엇을 어떻게 먹을 것인가?","서울시민 누구나(성인)","20180314","20180314","서울도서관 4층 사서교육장","무료","40","20180221","20180313","02","2133","0242","홈페이지(인터넷) 선착순 접수","마감","46","수요일 저녁 7시~9시 "
"1523","제41회 유네스코 세계유산위원회 회장 야첵 푸르흘라(Jacek Purchla) 교수 초청 강연회 ","서울시민 누구나(성인)","20180306","20180306","서울도서관 4층 사서교육장","무료","30","20180220","20180305","02","2133","0308","홈페이지(인터넷) 선착순 접수","마감","30","화요일 저녁 7시 ~ 8시 반"
"1502","[2018 올해의 한책 읽기] 독립의 삶을 그리다 「제시이야기」 북 토크","누구나(성인)","20180228","20180228","서울도서관 4층 사서교육장","무료","40","20180208","20180226","02","2133","0228","홈페이지(인터넷) 선착순 접수","마감","34","수요일 저녁7시~9시"
"1382","[4강] 우리 시대의 페미니즘 : 11월 목요대중강좌  ","서울시민 누구나(성인) ","20171130","20171130","서울도서관 4층 사서교육장 ","무료","50","20171019","20171129","02","2133","0242","홈페이지(인터넷) 선착순 접수 ","마감","62","목요일 저녁7시~9시 "
"1402","[3강] 우리 시대의 페미니즘 : 11월 목요대중강좌 ","서울시민 누구나(성인) ","20171123","20171123","서울도서관 4층 사서교육장  ","무료","50","20171019","20171122","02","2133","0242","홈페이지(인터넷) 선착순 접수","마감","61","목요일 저녁7시~9시  "
"1423","「달콤한 노래」의 저자 레일라 슬리마니와의 만남","시민","20171118","20171118","서울도서관 생각마루","무료","70","20171101","20171117","02","2133","0308","선착순","마감","70","토요일/저녁 7시~8시 30분"
"1401","[2강] 우리 시대의 페미니즘 : 11월 목요대중강좌  ","서울시민 누구나(성인)  ","20171116","20171116","서울도서관 4층 사서교육장 ","무료","50","20171019","20171115","02","2133","0242","홈페이지(인터넷) 선착순 접수","마감","62","목요일 저녁7시~9시"
"1441","'서울 문학 기행 ' 저자강연회","누구나","20171114","20171114","서울도서관 4층 사서교육장","무료","40","20171101","20171113","02","2133","0307","선착순 접수","마감","51","2017.11.14 (화) 19:00~21:00"
"1381","[1강] 우리 시대의 페미니즘 : 11월 목요대중강좌  ","서울시민 누구나(성인)  ","20171109","20171109","서울도서관 4층 사서교육장 ","무료","50","20171019","20171108","02","2133","0242","홈페이지(인터넷) 선착순 접수 ","마감","63","목요일 저녁7시~9시  "
"1343","[4강] 글쓰기 : 10월 목요대중강좌  ","서울시민 누구나(성인) ","20171102","20171102","서울도서관 4층 사서교육장 ","무료","50","20170921","20171101","02","2133","0242","홈페이지(인터넷) 선착순 접수  ","마감","66","목요일 저녁7시~9시"
"1361","「세상을 바꾸는 즐거운 습관」 에코맘 하지원 작가와의 만남","서울시민 누구나(초등학생 이상) ","20171028","20171028","서울도서관 4층 사서교육장","무료","40","20171007","20171027","02","2133","0242","홈페이지(인터넷) 선착순 접수  ","마감","4","토요일 오후 1시~2시 30분"
"1342","[3강] 글쓰기 : 10월 목요대중강좌  ","서울시민 누구나(성인)  ","20171026","20171026","서울도서관 4층 사서교육장 ","무료","50","20170921","20171025","02","2133","0242","홈페이지(인터넷) 선착순 접수","마감","61","목요일 저녁7시~9시 "
"1341","[2강] 글쓰기 : 10월 목요대중강좌  ","서울시민 누구나(성인)  ","20171019","20171019","서울도서관 4층 사서교육장 ","무료","50","20170921","20171018","02","2133","0242","홈페이지(인터넷) 선착순 접수","마감","57","목요일 저녁7시~9시"
"1321","[1강] 글쓰기 : 10월 목요대중강좌  ","서울시민 누구나(성인)  ","20171012","20171012","서울도서관 4층 사서교육장","무료","50","20170921","20171011","02","2133","0242","홈페이지(인터넷) 선착순 접수  ","마감","58","목요일 저녁7시~9시  "
"1301","도서관과 함께하는 책읽기","서울시민 누구나(성인) ","20171011","20171129","서울도서관 4층 사서교육장 ","무료","50","20170920","20171115","02","2133","0242","홈페이지(인터넷) 선착순 접수 ","마감","48","매주 수요일 저녁 7시~9시"
"1122","[4강] 한국소설의 재발견 : 9월 목요대중강좌  ","서울시민 누구나(성인)","20170928","20170928","서울도서관 4층 사서교육장  ","무료","50","20170817","20170927","02","2133","0242","홈페이지(인터넷) 선착순 접수 ","마감","32","(목)/저녁7시~9시  "
"1063","[5강] 로봇의 위협 : 내 인생으로의 출근-퇴근길 인문학  ","서울시민 누구나(성인)","20170927","20170927","서울도서관 1층 생각마루 ","무료","75","20170809","20170926","02","2133","0242","홈페이지(인터넷) 선착순 접수  ","마감","81","(수)/저녁7시~9시  "
"1143","[3강] 한국소설의 재발견 : 9월 목요대중강좌","서울시민 누구나(성인)  ","20170921","20170921","서울도서관 4층 사서교육장  ","무료","50","20170817","20170920","02","2133","0242","홈페이지(인터넷) 선착순 접수  ","마감","44","(목)/저녁7시~9시  "
"1082","[4강] 도서관과 권력자들 : 내 인생으로의 출근-퇴근길 인문학  ","서울시민 누구나(성인)","20170920","20170920","서울도서관 4층 사서교육장 ","무료","50","20170809","20170919","02","2133","0242","홈페이지(인터넷) 선착순 접수  ","마감","53","(수)/저녁7시~9시 "
"1181","[독서의달 기념 강연] '나 제대로 살고 있을까? 인도에 가면 답을 찾을 수 있다'","도서관 회원 누구나","20170915","20170915","서울도서관 4층 사서교육장","무료","60","20170901","20170911","02","2133","0308","도서관 홈페이지 선착순 접수","마감","59","금요일/ 19:00~21:00"
"1142","[2강] 한국소설의 재발견 : 9월 목요대중강좌  ","서울시민 누구나(성인) ","20170914","20170914","서울도서관 4층 사서교육장  ","무료 ","50","20170817","20170913","02","2133","0242","홈페이지(인터넷) 선착순 접수  ","마감","33","(목)/저녁7시~9시  "
"1062","[3강] 네트워크 시대의 상상력 동양신화 : 내 인생으로의 출근-퇴근길 인문학  ","서울시민 누구나(성인)","20170913","20170913","서울도서관 4층 사서교육장","무료","50","20170809","20170912","02","2133","0242","홈페이지(인터넷) 선착순 접수  ","마감","50","(수)/저녁7시~9시  "
"1141","[1강] 한국소설의 재발견 : 9월 목요대중강좌  ","서울시민 누구나(성인) ","20170907","20170907","서울도서관 4층 사서교육장 ","무료","50","20170817","20170906","02","2133","0242","홈페이지(인터넷) 선착순 접수  ","마감","37","(목)/저녁7시~9시  "
"1081","[2강] 뉴 노멀 시대의 사회적 경제 : 내 인생으로의 출근-퇴근길 인문학 ","서울시민 누구나(성인)","20170906","20170906","서울도서관 4층 사서교육장","무료","50","20170809","20170905","02","2133","0242","홈페이지(인터넷) 선착순 접수 ","마감","51","(수)/저녁7시~9시 "
"1121","2017 꿈꾸는 어르신의 행복한 책 읽기","65세 이상 어르신","20170905","20171104","서울도서관 사서교육장(4층)","무료","20","20170816","20170904","02","2133","0241","인터넷 접수 및 2층 안내데스크 신청서 접수","마감","19","매주 화요일 오전10~12시"
"1061","[1강] 나만의 속도로 살아가기 : 내 인생으로의 출근-퇴근길 인문학","서울시민 누구나(성인)","20170830","20170830","서울도서관 1층 생각마루","무료","75","20170809","20170830","02","2133","0242","홈페이지(인터넷) 선착순 접수  ","마감","86","(수)/저녁7시~9시  "
"861","[4강]4차 산업혁명 시대의 삶 :6월 목요대중강좌  ","서울시민 누구나(성인) ","20170629","20170629","서울도서관 4층 사서교육장 ","무료","50","20170523","20170629","02","2133","0242","홈페이지(인터넷) 선착순 접수  ","마감","46","(목)/저녁7시~9시  "
"921","『내 가슴을 뛰게 한 숲 속 생명들』생명과학자 김성호 교수 저자강연","서울시민 누구나(성인)  ","20170623","20170623","도서관 4층 사서교육장 ","무료","50","20170605","20170623","02","2133","0242","홈페이지(인터넷) 선착순 접수  ","마감","43","(금)/오후2시  "
"843","[3강]4차 산업혁명 시대의 삶 :6월 목요대중강좌  ","서울시민 누구나(성인)  ","20170622","20170622","서울도서관 4층 사서교육장","무료 ","50","20170523","20170622","02","2133","0242","이지(인터넷) 선착순 접수 ","마감","49","(목)/저녁7시~9시  "
"881","수화(수어) 도서관에서 꽃피다","서울시민 누구나","20170621","20170823","서울도서관 4층 사서교육장","무료","20","20170601","20170615","02","2133","0264","서울도서관 홈페이지 선착순 접수","마감","27","(수)/ 저녁 7~9시 (10회차)"
"901","ㅣ실비아 맥니콜(Sylvia McNicoll) 창의적으로 글을 쓰는 150가지 방법ㅣ","중학생~일반(성인)","20170617","20170617","서울도서관 4층 사서교육장","무료","50","20170602","20170608","02","2133","0308","홈페이지(인터넷) 선착순 접수  ","마감","56","토요일/10:30~12:00"
"842","[2강]4차 산업혁명 시대의 삶 :6월 목요대중강좌  ","서울시민 누구나(성인)","20170615","20170615","서울도서관 4층 사서교육장 ","무료","50","20170523","20170615","02","2133","0242","홈페이지(인터넷) 선착순 접수  ","마감","47","(목)/저녁7시~9시  "
"841","[1강]4차 산업혁명 시대의 삶  :6월 목요대중강좌 ","서울시민 누구나(성인) ","20170608","20170608","서울도서관 4층 사서교육장","무료","50","20170523","20170608","02","2133","0242","홈페이지(인터넷) 선착순 접수  ","마감","49","(목)/저녁7시~9시 "
"765","[4강] 역사(歷史)와 나 : 5월 목요대중강좌","서울시민 누구나(성인) ","20170601","20170601","서울도서관 4층 사서교육장 ","무료 ","50","20170420","20170601","02","2133","0242","홈페이지(인터넷) 선착순 접수 ","마감","48","(목)/저녁7시~9시  "
"821","서울도서관『한양도성 서울을 흐르다』강좌","서울시민 누구나","20170531","20170531","서울도서관 4층 사서교육장","무료","50","20170511","20170517","02","2133","0307","선착순 모집 ","마감","59","수요일 오후 7시~9시"
"801","[이와사키 치히로 展 연계 강연]『전 세계 어린이의 행복과 평화를 꿈꾸다: 이와사키 치히로의 그림책과 예술 세계 』","서울시민 누구나(성인)  ","20170528","20170528","서울도서관 4층 사서교육장 ","무료 ","50","20170507","20170528","02","2133","0242","홈페이지(인터넷) 선착순 접수  ","마감","50","(일)/14:00~15:30  "
"783","[3강]『배움이 느린 아이 자존감이 먼저다』(임혜숙 저자) ","서울시민 누구나(성인)  ","20170526","20170526","도서관 4층 사서교육장  ","무료 ","50","20170422","20170526","02","2133","0242","홈페이지(인터넷) 선착순 접수  ","마감","25","(금)/14:00~15:30  "
"764","[3강] 역사(歷史)와 나 : 5월 목요대중강좌","서울시민 누구나(성인) ","20170525","20170525","서울도서관 4층 사서교육장 ","무료 ","50","20170420","20170525","02","2133","0242","홈페이지(인터넷) 선착순 접수 ","마감","34","(목)/저녁7시~9시  "
"766","2017 서울책방학교 : 제11강 [책방토크 - 책방의 지속가능성을 찾아서]","책방에 관심있는 시민 기존 책방 운영자 등  ","20170523","20170523","서울도서관 4층 사서교육장  ","무료","20","20170420","20170522","02","2133","0213","홈페이지 강좌신청  ","마감","21","화요일 15:00~17:00  "
"782","[2강]『배움이 느린 아이 자존감이 먼저다』(김은정 저자) ","서울시민 누구나(성인) ","20170519","20170519","서울도서관 4층 사서교육장  ","무료","50","20170422","20170519","02","2133","0242","홈페이지(인터넷) 선착순 접수  ","마감","22","(금)/14:00~15:30  "
"763","[2강] 역사(歷史)와 나 : 5월 목요대중강좌","서울시민 누구나(성인) ","20170518","20170518","서울도서관 4층 사서교육장 ","무료 ","50","20170420","20170518","02","2133","0242","홈페이지(인터넷) 선착순 접수 ","마감","42","(목)/저녁7시~9시  "
"761","2017 서울책방학교 : 전문서점 [헬로인디북스] 제10강 ","책방에 관심있는 시민 기존 책방 운영자 등 ","20170516","20170516","서울도서관 4층 사서교육장 ","무료","40","20170419","20170516","02","2133","0213","홈페이지 강좌신청  ","마감","28","매주화요일 18:30~20:00  "
"781","[1강]『배움이 느린 아이 자존감이 먼저다』(오연주 저자)","서울시민 누구나(성인) ","20170512","20170512","서울도서관 4층 사서교육장 ","무료","50","20170422","20170512","02","2133","0242","홈페이지(인터넷) 선착순 접수 ","마감","28","(금)/14:00~15:30  "
"762","[1강] 역사(歷史)와 나 : 5월 목요대중강좌","서울시민 누구나(성인) ","20170511","20170511","서울도서관 4층 사서교육장 ","무료 ","50","20170420","20170511","02","2133","0242","홈페이지(인터넷) 선착순 접수 ","마감","45","(목)/저녁7시~9시  "
"741","2017 서울책방학교 : 전문서점 [사적인 서점] 제9강","책방에 관심있는 시민 기존 책방 운영자 등 ","20170502","20170502","서울도서관 4층 사서교육장  ","무료  ","40","20170419","20170502","02","2133","0213","홈페이지 강좌신청  ","마감","26","매주화요일 18:30~20:00  "
"583","[4강] 대한민국의 오늘 : 4월 목요대중강좌","서울시민 누구나(성인)","20170427","20170427","서울도서관 4층 사서교육장 ","무료","50","20170316","20170427","02","2133","0242","홈페이지(인터넷) 선착순 접수","마감","43","(목)/저녁7시~9시  "
"721","2017 서울책방학교 : 전문서점 [이라선] 제8강","책방에 관심있는 시민 기존 책방 운영자 등","20170425","20170425","서울도서관 4층 사서교육장  "," 무료 ","40","20170418","20170425","02","2133","0213","홈페이지 강좌신청 ","마감","17","매주화요일 18:30~20:00  "
"701","꿈꾸는 어르신의 행복한 책 읽기","65세 이상 어르신","20170425","20170711","서울도서관 사서교육장(4F)","무료","20","20170413","20170522","02","2133","0241","온라인 강좌 신청 자료실 내 신청","마감","20","매주 화요일 10:00~12:00"
"641","[강연]프랑스 대표 추리작가 미셸 뷔시(Michell Bussi) 초청 강연","서울시민 누구나(성인) ","20170421","20170421","서울도서관 1층 생각마루  ","무료","80","20170330","20170420","02","2133","0242","홈페이지(인터넷) 선착순 접수 ","마감","73","(금)/저녁7시~8시30분 "
"582","[3강] 대한민국의 오늘 : 4월 목요대중강좌","서울시민 누구나(성인)","20170420","20170420","서울도서관 4층 사서교육장 ","무료","50","20170316","20170420","02","2133","0242","홈페이지(인터넷) 선착순 접수","마감","44","(목)/저녁7시~9시  "
"681","2017 서울책방학교 : 전문서점 [사이에] 제7강  ","책방에 관심있는 시민 기존 책방 운영자 등  ","20170418","20170418","서울도서관 4층 사서교육장  ","무료","40","20170410","20170418","02","2133","0209","홈페이지 강좌신청","마감","25","매주화요일 18:30~20:00  "
"661","[강연] 요리연구가 나카가와 히데코 초청 강연","서울시민 누구나(성인)","20170417","20170417","서울도서관 1층 생각마루","무료","90","20170404","20170417","02","2133","0308","홈페이지 선착순","마감","94","월요일/저녁 7:00~8:30"
"581","[2강] 대한민국의 오늘 : 4월 목요대중강좌","서울시민 누구나(성인)","20170413","20170413","서울도서관 4층 사서교육장 ","무료","50","20170316","20170413","02","2133","0242","홈페이지(인터넷) 선착순 접수","마감","46","(목)/저녁7시~9시  "
"622","2017 서울책방학교 : 전문서점 [사슴책방 - 2] 제6강  ","책방에 관심있는 시민 기존 책방 운영자 등  ","20170411","20170411","서울도서관 4층 사서교육장  ","무료","40","20170328","20170411","02","2133","0209","홈페이지 강좌신청  ","마감","42","매주화요일 18:30~20:00  "
"561","[1강] 대한민국의 오늘 : 4월 목요대중강좌","서울시민 누구나(성인)","20170406","20170406","서울도서관 4층 사서교육장 ","무료","50","20170316","20170405","02","2133","0242","홈페이지(인터넷) 선착순 접수","마감","46","(목)/저녁7시~9시  "
"621","2017 서울책방학교 : 전문서점 [사슴책방 - 1] 제5강  ","책방에 관심있는 시민 기존 책방 운영자 등  ","20170404","20170404","서울도서관 4층 사서교육장  ","무료","40","20170328","20170404","02","2133","0209","홈페이지 강좌신청  ","마감","40","매주화요일 18:30~20:00  "
"601","2017 서울책방학교 : 전문서점 [고요서사] 제4강  ","책방에 관심있는 시민 기존 책방 운영자 등  ","20170328","20170328","서울도서관 4층 사서교육장 ","무료","40","20170320","20170328","02","2133","0209","홈페이지 강좌신청  ","마감","27","매주화요일 18:30~20:00 "
"541","2017 서울책방학교 : 전문서점 [초원서점] 제3강 ","책방에 관심있는 시민 기존 책방 운영자 등 ","20170321","20170321","서울도서관 4층 사서교육장","무료","40","20170313","20170321","02","2133","0209","홈페이지 강좌신청 ","마감","19","매주화요일 18:30~20:00"
"521","2017 서울책방학교 : 전문서점 [POST POETICS 포스트 포에틱스] 제2강","책방에 관심있는 시민 기존 책방 운영자 등","20170314","20170314","서울도서관 4층 사서교육장","무료","40","20170306","20170314","02","2133","0209","홈페이지 강좌신청","마감","23","화요일 오후 6:30~8:00"
"481","호주 그림책 작가 '안나 워커(Anna Walker)'와의 만남","유아동반가족(6세이상)","20170312","20170312","서울도서관 4층 사서교육장","무료","40","20170225","20170310","02","2133","0308","홈페이지(인터넷)선착순 접수","마감","40","일요일/오후1시~2시반"
"501","2017 서울책방학교 : 전문서점 [B-PLATFORM 비플랫폼] 제1강 ","책방에 관심있는 시민 기존 책방 운영자 등","20170307","20170307","서울도서관 4층 사서교육장","무료","40","20170302","20170307","02","2133","0209","홈페이지 강좌신청","마감","33","화요일 오후 6:30~8:00"
"461","[나무도장 展] 권윤덕 작가와의 만남","서울시민 누구나(성인)  ","20170302","20170302","서울도서관 4층 사서교육장","무료 ","40","20170209","20170302","02","2133","0242","홈페이지(인터넷) 선착순 접수 ","마감","35","(목)/오후2시~3시30분 "
"403","[4강] 위기의 한국사회를 말하다 : 11월 목요대중강좌","서울시민 누구나(성인)","20161124","20161124","서울도서관 4층 사서교육장  ","무료","50","20161011","20161124","02","2133","0242","홈페이지(인터넷) 선착순 접수","마감","32","(목)/저녁7시~9시  "
"402","[3강] 위기의 한국사회를 말하다 : 11월 목요대중강좌","서울시민 누구나(성인)","20161117","20161117","서울도서관 4층 사서교육장  ","무료","50","20161011","20161117","02","2133","0242","홈페이지(인터넷) 선착순 접수","마감","37","(목)/저녁7시~9시  "
"421","[2강] 위기의 한국사회를 말하다 : 11월 목요대중강좌","서울시민 누구나(성인)","20161110","20161110","서울도서관 4층 사서교육장  ","무료","50","20161011","20161110","02","2133","0242","홈페이지(인터넷) 선착순 접수","마감","37","(목)/저녁7시~9시  "
"401","[1강] 위기의 한국사회를 말하다 : 11월 목요대중강좌","서울시민 누구나(성인)","20161103","20161103","서울도서관 4층 사서교육장  ","무료","50","20161011","20161103","02","2133","0242","홈페이지(인터넷) 선착순 접수","마감","47","(목)/저녁7시~9시  "
"361","[4강] 시를 찾아서: 10월 목요대중강좌  ","서울시민 누구나(성인)  ","20161027","20161027","서울도서관 4층 사서교육장  ","무료 ","50","20160920","20161027","02","2133","0242","홈페이지(인터넷) 선착순 접수  ","마감","43","(목)/저녁7시~9시  "
"441","l 한 달에 한 도시 : 인생의 전환점으로서의 세계여행 l","서울시민 누구나(성인)","20161026","20161026","서울도서관 4층 사서교육장","무료","50","20161012","20161025","02","2133","0308","","마감","45","수요일/저녁 7~9시"
"343","[3강] 시를 찾아서: 10월 목요대중강좌  ","서울시민 누구나(성인)  ","20161020","20161020","서울도서관 4층 사서교육장 ","무료","50","20160920","20161020","02","2133","0242","홈페이지(인터넷) 선착순 접수  ","마감","42","(목)/저녁7시~9시  "
"381","영화 '밀정'의 모티브가 된 그 책! 서울도서관『1923 경성을 뒤흔든 사람들 ? 저자와의 만남』","서울시민 누구나(성인) ","20161014","20161014","서울도서관 4층 사서교육장  ","무료","50","20161005","20161014","02","2133","0307","","마감","41","(금) 저녁7~9시"
"342","[2강] 시를 찾아서: 10월 목요대중강좌  ","서울시민 누구나(성인)","20161013","20161013","서울도서관 4층 사서교육장  ","료 ","50","20160920","20161013","02","2133","0242","페이지(인터넷) 선착순 접수","마감","49","(목)/저녁7시~9시  "
"341","[1강] 시를 찾아서: 10월 목요대중강좌 ","서울시민 누구나(성인)  ","20161006","20161006","서울도서관 4층 사서교육장  ","무료","50","20160920","20161006","02","2133","0242","홈페이지(인터넷) 선착순 접수  ","마감","48","(목)/저녁7시~9시  "
"263","[4강] 인문적 시각으로 음식을 만나다 : 9월 목요대중강좌 ","서울시민 누구나(성인)  ","20160929","20160929","서울도서관 4층 사서교육장 ","무료","50","20160817","20160929","02","2133","0242","홈페이지(인터넷) 선착순 접수  ","마감","48","(목)/저녁7시~9시  "
"321","하반기 '꿈꾸는 어르신의 행복한 책읽기' 참가자 모집 ","65세 이상 어르신 ","20160927","20161129","서울도서관 4층 사서교육장","무료","20","20160901","20160923","02","2133","0241","서울도서관 자료실 방문 신청 및 홈페이지 강좌 신청 ","마감","3","매주 화요일/ 10:00~12:00"
"281","[3강] 인문적 시각으로 음식을 만나다 : 9월 목요대중강좌 ","서울시민 누구나(성인)  ","20160922","20160922","서울도서관 4층 사서교육장  ","무료","50","20160817","20160922","02","2133","0242","홈페이지(인터넷) 선착순 접수  ","마감","48","(목)/저녁7시~9시  "
"262","[2강] 인문적 시각으로 음식을 만나다 : 9월 목요대중강좌 ","서울시민 누구나(성인)  ","20160908","20160908","(목)/저녁7시~9시  ","무료","50","20160817","20160908","02","2133","0242","홈페이지(인터넷) 선착순 접수","마감","43","(목)/저녁7시~9시  "
"261","[1강] 인문적 시각으로 음식을 만나다 : 9월 목요대중강좌","서울시민 누구나(성인) ","20160901","20160901","서울도서관 4층 사서교육장 ","무료","50","20160817","20160901","02","2133","0242","홈페이지(인터넷) 선착순 접수 ","마감","47","(목)/저녁7시~9시 "
"241","우리시 낭독하고 쓰고 즐기다 : 『詩詩한 캠프』사전 행사 ","시낭독에 관심 있는 시민 누구나","20160824","20160824","서울도서관 4층 사서교육장 ","무료","20","20160812","20160824","02","2133","0241","","마감","6","수/18:30~20:00"
"223","2016 청소년 하계 계절강좌 : 4강 하이브리드 인재의 시대가 온다","수도권 중.고등학생 및 또래 청소년","20160818","20160818","서울도서관 4층 사서교육장","무료","40","20160719","20160823","02","2133","0242","홈페이지(인터넷) 선착순 접수","마감","6","(목)/오전 10:30~12:30"
"222","2016 청소년 하계 계절강좌 : 3강 사물인터넷 세상의 도래와 미래의 삶","수도권 중.고등학생 및 또래 청소년","20160816","20160816","서울도서관 4층 사서교육장","무료","40","20160719","20160816","02","2133","0242","홈페이지(인터넷) 선착순 접수","마감","16","(화)/오전 10:30~12:30"
"221","2016 청소년 하계 계절강좌 : 2강 인공지능시대를 살아갈 이들을 위한 안내","수도권 중.고등학생 및 또래 청소년","20160809","20160809","서울도서관 4층 사서교육장","무료","40","20160719","20160809","02","2133","0242","홈페이지(인터넷) 선착순 접수","마감","25","(화)/오전 10:30~12:30"
"201","2016 청소년 하계 계절강좌 : 1강 가까운 미래를 살펴라","수도권 중.고등학생 및 또래 청소년","20160802","20160802","서울도서관 4층 사서교육장","무료","40","20160719","20160802","02","2133","0242","홈페이지(인터넷) 선착순 접수","마감","17","(화)/오전 10:30~12:30"
"181","「디어 슬로베니아」 김이듬 저자와의 만남","슬로베니아에 관심 있는 시민","20160720","20160720","서울도서관 4층 사서교육장","무료","40","20160706","20160719","02","2133","0308","서울도서관 홈페이지 강좌신청 전화를 통한 선착순 마감","마감","39","수요일 저녁 7시~9시"
"143","분석심리학자가 말하는 미래인간의 모든 것 : 6월 목요대중강좌","서울시민 누구나(성인)","20160630","20160630","서울도서관 4층 사서교육장","무료","40","20160518","20160629","02","2133","0242","홈페이지(인터넷) 선착순 접수","마감","40","(목)/저녁7시~9시"
"161","미래 역사를 결정할 19가지 어젠다 : 6월 목요대중강좌","서울시민 누구나(성인)","20160623","20160623","서울도서관 4층 사서교육장","무료","40","20160518","20160622","02","2133","0242","홈페이지(인터넷) 선착순 접수","마감","40","(목)/저녁7시~9시"
"142","지나간 백년 다가올 미래 : 6월 목요대중강좌","서울시민 누구나(성인)","20160616","20160616","서울도서관 4층 사서교육장","무료","40","20160518","20160615","02","2133","0242","홈페이지(인터넷) 선착순 접수","마감","30","(목)/저녁7시~9시"
"141","미래사회 인류에게 가장 중요한 것을 말한다 :  6월 목요대중강좌","서울시민 누구나(성인)","20160609","20160609","서울도서관 4층 사서교육장","무료","40","20160518","20160608","02","2133","0242","홈페이지(인터넷) 선착순 접수","마감","39","(목)/저녁7시~9시"
"83","'5월 목요대중강좌' 4강 : 한 손에 차표를 한 손엔 시집을","서울시민 누구나(성인)","20160602","20160602","서울도서관 4층 사서교육장","무료","60","20160419","20160601","02","2133","0242","홈페이지(인터넷) 선착순 접수","마감","39","(목)/저녁7시~9시"
"101","'5월 목요대중강좌' 3강 : 여행 그자체에 대한 성찰적 통섭적 질문들","서울시민 누구나(성인)","20160526","20160526","서울도서관 4층 사서교육장","무료","60","20160419","20160525","02","2133","0242","홈페이지(인터넷) 선착순 접수","마감","34","(목)/저녁7시~9시"
"84","[강의]책을 짓다 展 연계강의 2강 - 책을 짓다/조효은 강사","서울시민 누구나(성인)","20160525","20160525","서울도서관 4층 사서교육장","무료","40","20160426","20160523","02","2133","0242","홈페이지(인터넷) 선착순 접수","마감","29","(수)/14:00~16:00"
"121","2016 서울?책방학교 책방탐방 이벤트(북티크)","2016 서울?책방학교를 수강한 청강자 누구나","20160520","20160520","북티크(서울 강남구 논현동)","없음","20","20160509","20160518","02","2133","0209","강좌신청을 통한 선착순 모집","마감","8","금요일 저녁6시30분~7시30분"
"82","'5월 목요대중강좌' 2강 : 국내 감성여행지 99곳으로의 빈티지트레블","서울시민 누구나(성인)","20160519","20160519","서울도서관 4층 사서교육장","무료","60","20160419","20160517","02","2133","0242","홈페이지(인터넷) 선착순 접수","마감","53","(목)/저녁7시~9시"
"81","'5월 목요대중강좌' 1강 : 어디에서 어떤 여행을 할 것인가?","서울시민 누구나(성인)","20160512","20160512","서울도서관 4층 사서교육장","무료","60","20160419","20160509","02","2133","0242","홈페이지(인터넷) 선착순 접수","마감","56","(목)/저녁7시~9시"
"85","[강의]책을 짓다 展 연계강의 1강- 책의 미적가치/김명수 강사","서울시민 누구나(성인)","20160511","20160511","서울도서관 4층 사서교육장","무료","60","20160426","20160508","02","2133","0242","홈페이지(인터넷) 선착순 접수","마감","22","(수)/14:00~16:00"
"44","2016 서울?책방학교 10강 : 홍대의 떠오르는 랜드마크(땡스북스)","책방에 관심있는 시민","20160510","20160510","서울도서관 4층 사서교육장","없음","50","20160503","20160510","02","2133","0209","서울도서관 홈페이지 강좌신청을 통한 선착순 마감","마감","30","화요일 저녁 6시30분~8시30분"
"86","'서울특별시 vs. 서울보통시' 저자강연회","서울시민 누구나(성인) ","20160504","20160504","서울도서관 3층 서울자료실","무료","30","20160426","20160504","02","2133","0307","","마감","18","수요일 저녁 7시"
"43","2016 서울?책방학교 9강 : 개성 넘치는 독립책방 탐방기(장혜령)","책방에 관심있는 시민","20160503","20160503","서울도서관 4층 사서교육장","없음","50","20160426","20160503","02","2133","0209","서울도서관 홈페이지 강좌신청을 통한 선착순 마감","마감","28","화요일 저녁 6시30분~8시30분"
"4","'그림책 평화를 말하다' : 4강 이억배 작가와의 만남","서울시민 누구나(성인)","20160428","20160428","서울도서관 4층 사서교육장","무료","30","20160407","20160426","02","2133","0242","홈페이지(인터넷) 선착순 접수","마감","28","(목)/ 14:00~15:30"
"42","2016 서울?책방학교 8강 : 헌책을 대하는 서점인의 자세(이상한 나라의 헌책방)","책방에 관심있는 시민","20160426","20160426","서울도서관 4층 사서교육장","없음","50","20160419","20160426","02","2133","0209","서울도서관 홈페이지 강좌신청을 통한 선착순 마감","마감","33","화요일 저녁 6시30분~8시30분"
"21","'그림책 평화를 말하다' : 3강 권윤덕 작가와의 만남","서울시민 누구나(성인)","20160426","20160426","서울도서관 4층 사서교육장","무료","30","20160405","20160424","02","2133","0242","홈페이지(인터넷) 선착순 접수","마감","26","(화)/14:00~15:30"
"3","'그림책 평화를 말하다' : 2강 김환영 작가와의 만남","서울시민 누구나(성인)","20160419","20160419","서울도서관 4층 사서교육장","무료","30","20160329","20160412","02","2133","0242","홈페이지(인터넷) 선착순 접수","마감","27","(화)/ 14:00~15:30"
"41","2016 서울?책방학교 7강 : 지역 네트워크 서점(노원문고)","책방에 관심있는 시민","20160419","20160419","서울도서관 4층 사서교육장","없음","50","20160412","20160419","02","2133","0209","선착순 신청","마감","27","화요일 저녁6시30분~8시30분"
"2","'그림책 평화를 말하다' : 1강 정승각 작가와의 만남","서울시민 누구나(성인)","20160412","20160412","서울도서관 4층 사서교육장","무료","30","20160322","20160405","02","2133","0242","홈페이지(인터넷) 선착순 접수","마감","30","(화)/14:00~15:30"