"서비스구분","서비스ID","대분류명","소분류명","서비스상태","서비스명","결제방법","장소명","서비스대상","바로가기URL","장소X좌표","장소Y좌표","서비스개시시작일시","서비스개시종료일시","접수시작일시","접수종료일시","지역명"
"자체","S191218094846487525","시설대관","회의실","예약일시중지","종로구 가회동 자치회관 3층 소회의실","유료(요금안내문의)","가회동 자치회관","제한없음","http://yeyak.seoul.go.kr/reservation/view.web?rsvsvcid=S191218094846487525","37.58004995575243","126.98478902543641","2019-12-18 00:00:00.0","2020-12-31 00:00:00.0","2019-12-18 00:00:00.0","2020-12-31 23:59:00.0","종로구"
"자체","S191218095802553385","시설대관","주민사랑방","예약일시중지","종로구 가회동 자치회관 3층 주민사랑방","무료","가회동 자치회관","제한없음","http://yeyak.seoul.go.kr/reservation/view.web?rsvsvcid=S191218095802553385","37.58004995575243","126.98478902543641","2019-12-18 00:00:00.0","2020-12-31 00:00:00.0","2019-12-18 00:00:00.0","2020-12-31 23:59:00.0","종로구"
"자체","S191218100253652387","시설대관","다목적실","예약일시중지","종로구 가회동 자치회관 지하2층 다목적실","유료(요금안내문의)","가회동 자치회관","제한없음","http://yeyak.seoul.go.kr/reservation/view.web?rsvsvcid=S191218100253652387","37.58004995575243","126.98478902543641","2019-12-18 00:00:00.0","2020-12-31 00:00:00.0","2019-12-18 00:00:00.0","2020-12-31 23:59:00.0","종로구"
"자체","S191218100928596758","시설대관","강당","예약일시중지","종로구 가회동 자치회관 지하1층 대강당","유료(요금안내문의)","가회동 자치회관","제한없음","http://yeyak.seoul.go.kr/reservation/view.web?rsvsvcid=S191218100928596758","37.58004995575243","126.98478902543641","2019-12-18 00:00:00.0","2020-12-31 00:00:00.0","2019-12-18 00:00:00.0","2020-12-31 23:59:00.0","종로구"
"자체","S191217112033317101","시설대관","다목적실","접수중","종로구 혜화동자치회관 3층 세미나실","유료(요금안내문의)","혜화동 자치회관 3층 세미나실","제한없음","http://yeyak.seoul.go.kr/reservation/view.web?rsvsvcid=S191217112033317101","37.5868552362675","127.00056610446971","2020-01-01 00:00:00.0","2020-12-31 00:00:00.0","2020-01-01 00:00:00.0","2020-12-31 00:00:00.0","종로구"
"자체","S200102211116827314","시설대관","강의실","접수중","종로구 평창동주민센터 3층 취미교실","유료(요금안내문의)","평창동 주민센터","제한없음","http://yeyak.seoul.go.kr/reservation/view.web?rsvsvcid=S200102211116827314","37.60637367867771","126.96836687860072","2020-01-02 00:00:00.0","2020-12-31 00:00:00.0","2020-01-02 00:00:00.0","2020-12-31 23:59:00.0","종로구"
"자체","S200102211645475540","시설대관","강당","접수중","종로구 평창동주민센터 지하대강당","유료(요금안내문의)","평창동 주민센터","제한없음","http://yeyak.seoul.go.kr/reservation/view.web?rsvsvcid=S200102211645475540","37.60637367867771","126.96836687860072","2020-01-02 00:00:00.0","2020-12-31 00:00:00.0","2020-01-02 00:00:00.0","2020-12-31 11:59:00.0","종로구"
"자체","S200110180552520652","시설대관","강당","접수중","종로구 평창동주민센터 4층 대강당","유료(요금안내문의)","평창동 주민센터","제한없음","http://yeyak.seoul.go.kr/reservation/view.web?rsvsvcid=S200110180552520652","37.60637367867771","126.96836687860072","2020-01-01 00:00:00.0","2020-12-31 00:00:00.0","2020-01-01 00:00:00.0","2020-12-31 23:59:00.0","종로구"
"자체","S200110180838768079","시설대관","기타","접수중","평창동자치회관 북카페 소담원","유료(요금안내문의)","평창동 주민센터","제한없음","http://yeyak.seoul.go.kr/reservation/view.web?rsvsvcid=S200110180838768079","37.60637367867771","126.96836687860072","2020-01-01 00:00:00.0","2020-12-31 00:00:00.0","2020-01-01 00:00:00.0","2020-12-31 23:59:00.0","종로구"
"자체","S200110093623263258","시설대관","강의실","접수중","이화동자치회관 3층 요가실","유료(요금안내문의)","이화동 자치회관 3층 강의실(요가실)","제한없음","http://yeyak.seoul.go.kr/reservation/view.web?rsvsvcid=S200110093623263258","37.57698026778117","127.00434710811255","2020-01-01 00:00:00.0","2020-12-31 00:00:00.0","2020-01-01 09:00:00.0","2020-12-31 18:00:00.0","종로구"
"자체","S191214110501258871","시설대관","강당","접수종료","서울역사박물관 야주개홀(강당) ('20.4월)","유료(요금안내문의)","서울역사박물관","제한없음","http://yeyak.seoul.go.kr/reservation/view.web?rsvsvcid=S191214110501258871","37.570500279648634","126.97037430869801","2020-01-01 00:00:00.0","2021-04-30 00:00:00.0","2020-01-01 00:00:00.0","2020-02-15 23:59:00.0","종로구"
"자체","S200220171649561804","시설대관","강당","접수종료","서울역사박물관 야주개홀(강당) ('20.6월)","유료(요금안내문의)","서울역사박물관","제한없음","http://yeyak.seoul.go.kr/reservation/view.web?rsvsvcid=S200220171649561804","37.570500279648634","126.97037430869801","2020-03-01 00:00:00.0","2020-06-30 00:00:00.0","2020-03-01 00:00:00.0","2020-04-15 23:59:00.0","종로구"
"자체","S200322091229694908","시설대관","강당","접수종료","서울역사박물관 야주개홀(강당) ('20.7월)","유료(요금안내문의)","서울역사박물관","제한없음","http://yeyak.seoul.go.kr/reservation/view.web?rsvsvcid=S200322091229694908","37.570500279648634","126.97037430869801","2020-04-01 00:00:00.0","2020-07-31 00:00:00.0","2020-04-01 00:00:00.0","2020-05-15 00:00:00.0","종로구"
"자체","S200425075820497176","시설대관","강당","접수중","서울역사박물관 야주개홀(강당) ('20. 8월)","유료(요금안내문의)","서울역사박물관","제한없음","http://yeyak.seoul.go.kr/reservation/view.web?rsvsvcid=S200425075820497176","37.570500279648634","126.97037430869801","2020-05-01 00:00:00.0","2020-08-31 00:00:00.0","2020-05-01 00:00:00.0","2020-06-15 23:59:00.0","종로구"
"자체","S200525155211000675","시설대관","강당","접수중","서울역사박물관 야주개홀(강당) ('20. 9월)","유료(요금안내문의)","서울역사박물관","제한없음","http://yeyak.seoul.go.kr/reservation/view.web?rsvsvcid=S200525155211000675","37.570500279648634","126.97037430869801","2020-06-01 00:00:00.0","2020-09-30 00:00:00.0","2020-06-01 00:00:00.0","2020-07-15 23:59:00.0","종로구"
"자체","S191230153715096311","시설대관","다목적실","접수중","창신제1동 주민센터 3층 다목적실","유료(요금안내문의)","창신제1동주민센터","제한없음","http://yeyak.seoul.go.kr/reservation/view.web?rsvsvcid=S191230153715096311","37.57071910479988","127.01634104135418","2020-01-01 00:00:00.0","2020-12-31 00:00:00.0","2020-01-01 09:00:00.0","2020-12-31 18:00:00.0","종로구"
"자체","S191230155403281357","시설대관","기타","접수중","창신제1동 주민회관 2층 하람작은도서관","무료","창신제1동주민센터","제한없음","http://yeyak.seoul.go.kr/reservation/view.web?rsvsvcid=S191230155403281357","37.57071910479988","127.01634104135418","2020-01-01 00:00:00.0","2020-12-31 00:00:00.0","2020-01-01 09:00:00.0","2020-12-31 18:00:00.0","종로구"
"자체","S181231145123346895","시설대관","강당","접수중","숭인2동 자치회관 4층 강당","유료(요금안내문의)","숭인2동주민센터","제한없음","http://yeyak.seoul.go.kr/reservation/view.web?rsvsvcid=S181231145123346895","37.57487393725163","127.01995990909798","2020-01-01 00:00:00.0","2020-12-31 00:00:00.0","2020-01-02 09:00:00.0","2020-12-31 18:00:00.0","종로구"
"자체","S181231152407255256","시설대관","강의실","접수종료","숭인2동 자치회관 3층 강의실","유료(요금안내문의)","숭인2동주민센터","제한없음","http://yeyak.seoul.go.kr/reservation/view.web?rsvsvcid=S181231152407255256","37.57487393725163","127.01995990909798","2020-01-01 00:00:00.0","2020-12-31 00:00:00.0","2019-01-01 09:00:00.0","2019-12-31 18:00:00.0","종로구"
"자체","S190213180154640324","시설대관","회의실","접수중","숭인2동 자치회관 3층 회의실","유료(요금안내문의)","숭인2동주민센터","제한없음","http://yeyak.seoul.go.kr/reservation/view.web?rsvsvcid=S190213180154640324","37.57487393725163","127.01995990909798","2020-01-01 00:00:00.0","2020-12-31 00:00:00.0","2020-01-01 09:00:00.0","2020-12-31 18:00:00.0","종로구"
"자체","S200220110357508254","시설대관","강당","접수중","종로구 숭인1동주민센터 5층 대강당 예약","유료(요금안내문의)","숭인1동 주민센터","제한없음","http://yeyak.seoul.go.kr/reservation/view.web?rsvsvcid=S200220110357508254","37.577822644121575","127.01562712401446","2020-01-01 00:00:00.0","2020-12-31 00:00:00.0","2020-01-01 09:00:00.0","2020-12-31 18:00:00.0","종로구"
"자체","S200220114757319250","시설대관","강의실","접수중","종로구 숭인1동주민센터 5층 소강의실 예약","유료(요금안내문의)","숭인1동 주민센터","제한없음","http://yeyak.seoul.go.kr/reservation/view.web?rsvsvcid=S200220114757319250","37.577822644121575","127.01562712401446","2020-01-01 00:00:00.0","2020-12-31 00:00:00.0","2020-01-01 09:00:00.0","2020-12-31 18:00:00.0","종로구"
"자체","S200220115351383825","시설대관","강당","접수중","종로구 숭인1동주민센터 1층 다목적실","유료(요금안내문의)","숭인1동 주민센터","제한없음","http://yeyak.seoul.go.kr/reservation/view.web?rsvsvcid=S200220115351383825","37.577822644121575","127.01562712401446","2020-01-01 00:00:00.0","2020-12-31 00:00:00.0","2020-01-01 09:00:00.0","2020-12-31 18:00:00.0","종로구"
"자체","S200220120334110477","시설대관","기타","접수중","숭인1동주민센터 2층 숭인마루작은도서관","무료","숭인1동 주민센터","제한없음","http://yeyak.seoul.go.kr/reservation/view.web?rsvsvcid=S200220120334110477","37.577822644121575","127.01562712401446","2020-01-01 00:00:00.0","2020-12-31 00:00:00.0","2020-01-01 09:00:00.0","2020-12-31 18:00:00.0","종로구"
"자체","S200103165215144072","시설대관","회의실","예약일시중지","서울글로벌센터 국제회의장","유료(요금안내문의)","서울글로벌센터빌딩 국제회의장","제한없음","http://yeyak.seoul.go.kr/reservation/view.web?rsvsvcid=S200103165215144072","37.5698213919","126.981481281","2020-01-01 00:00:00.0","2020-12-31 00:00:00.0","2020-01-01 08:00:00.0","2020-12-31 21:00:00.0","종로구"
"자체","S191217112527882346","시설대관","강당","접수중","종로구 혜화동자치회관 2층 혜화홀","유료(요금안내문의)","혜화동 자치회관 2층 혜화홀","제한없음","http://yeyak.seoul.go.kr/reservation/view.web?rsvsvcid=S191217112527882346","37.5868552362675","127.00056610446971","2020-01-01 00:00:00.0","2020-12-31 00:00:00.0","2020-01-01 00:00:00.0","2020-12-31 23:59:00.0","종로구"
"자체","S200110100237539194","시설대관","강의실","접수중","종로구 이화동자치회관 3층 강의실","유료(요금안내문의)","이화동자치회관 3층 1강의실","성인","http://yeyak.seoul.go.kr/reservation/view.web?rsvsvcid=S200110100237539194","37.57698026778117","127.00434710811255","2020-01-01 00:00:00.0","2020-12-31 00:00:00.0","2020-01-01 09:00:00.0","2020-12-31 18:00:00.0","종로구"
"자체","S191218153008994094","시설대관","다목적실","접수중","종로구 삼청동주민센터 3층 다목적실","유료(요금안내문의)","삼청동주민센터","제한없음","http://yeyak.seoul.go.kr/reservation/view.web?rsvsvcid=S191218153008994094","37.58500500586937","126.98185793307833","2019-12-18 00:00:00.0","2020-12-31 00:00:00.0","2019-12-18 00:00:00.0","2020-12-31 23:59:00.0","종로구"
"자체","S191219081018419747","시설대관","회의실","접수중","종로구 삼청동주민센터 2층 회의실","유료(요금안내문의)","삼청동주민센터","제한없음","http://yeyak.seoul.go.kr/reservation/view.web?rsvsvcid=S191219081018419747","37.58500500586937","126.98185793307833","2019-12-19 00:00:00.0","2020-12-31 00:00:00.0","2019-12-19 00:00:00.0","2020-12-31 23:59:00.0","종로구"
"자체","S200110091931935089","시설대관","강당","접수중","종로구 이화동자치회관 4층 강당","유료(요금안내문의)","이화동 자치회관 4층강당","제한없음","http://yeyak.seoul.go.kr/reservation/view.web?rsvsvcid=S200110091931935089","37.57698026778117","127.00434710811255","2020-01-01 00:00:00.0","2020-12-31 00:00:00.0","2020-01-01 09:00:00.0","2020-12-31 18:00:00.0","종로구"
"자체","S191219124503239570","시설대관","강당","접수중","종로1.2.3.4가동주민센터 3층 강당","유료(요금안내문의)","종로1.2.3.4가동 자치회관","제한없음","http://yeyak.seoul.go.kr/reservation/view.web?rsvsvcid=S191219124503239570","37.5744895949","126.9902329168","2020-01-01 00:00:00.0","2020-12-31 00:00:00.0","2020-01-01 09:00:00.0","2020-12-31 18:00:00.0","종로구"
"자체","S191219130929770367","시설대관","강의실","접수중","종로1.2.3.4가동주민센터 2층 강의실 ","유료(요금안내문의)","종로1.2.3.4가동 자치회관","제한없음","http://yeyak.seoul.go.kr/reservation/view.web?rsvsvcid=S191219130929770367","37.5744895949","126.9902329168","2020-01-01 00:00:00.0","2020-12-31 00:00:00.0","2020-01-01 09:00:00.0","2020-12-31 18:00:00.0","종로구"
"자체","S200219161518347693","시설대관","다목적실","접수중","종로구 창신2동주민센터 3층 다목적실","유료(요금안내문의)","종로구 창신2동주민센터","제한없음","http://yeyak.seoul.go.kr/reservation/view.web?rsvsvcid=S200219161518347693","37.57444985451868","127.01087193061595","2020-02-19 00:00:00.0","2020-12-31 00:00:00.0","2020-02-19 00:00:00.0","2020-12-31 16:00:00.0","종로구"
"자체","S200221103257517380","시설대관","기타","접수중","창신2동 자치회관 2층 창이작은도서관","무료","종로구 창신2동주민센터","제한없음","http://yeyak.seoul.go.kr/reservation/view.web?rsvsvcid=S200221103257517380","37.57444985451868","127.01087193061595","2020-02-21 00:00:00.0","2020-12-31 00:00:00.0","2020-02-21 09:00:00.0","2020-12-31 16:00:00.0","종로구"
"자체","S191226131321012018","시설대관","강당","접수중","종로구 부암동 주민센터 2층 강당","유료(요금안내문의)","부암동주민센터 2층 강당","제한없음","http://yeyak.seoul.go.kr/reservation/view.web?rsvsvcid=S191226131321012018","37.592410692771274","126.96406554688714","2020-01-01 00:00:00.0","2020-12-31 00:00:00.0","2020-01-01 00:00:00.0","2020-12-31 00:00:00.0","종로구"
"자체","S200103171735492225","시설대관","강의실","접수중","청운효자동자치회관 1층 강의실","유료(요금안내문의)","청운효자동자치회관 1층 강의실","제한없음6세이상","http://yeyak.seoul.go.kr/reservation/view.web?rsvsvcid=S200103171735492225","37.58183089150602","126.96922410105563","2020-01-03 00:00:00.0","2020-12-31 00:00:00.0","2020-01-03 09:00:00.0","2020-12-31 18:00:00.0","종로구"
"자체","S200103172653555856","시설대관","다목적실","접수중","청운효자동 자치회관 지하1층다목적실","유료(요금안내문의)","청운효자동자치회관 지하1층 다목적실","제한없음6세이상","http://yeyak.seoul.go.kr/reservation/view.web?rsvsvcid=S200103172653555856","37.58183089150602","126.96922410105563","2020-01-03 00:00:00.0","2020-12-31 00:00:00.0","2020-01-03 09:00:00.0","2020-12-31 18:00:00.0","종로구"
"자체","S200112200324819360","시설대관","기타","접수중","무악동 자치회관 2층 다솜방","무료","무악동 주민센터 (무악동 자치회관)","제한없음","http://yeyak.seoul.go.kr/reservation/view.web?rsvsvcid=S200112200324819360","37.57599985913768","126.95815963393514","2020-01-02 00:00:00.0","2020-12-31 00:00:00.0","2020-01-12 09:00:00.0","2020-12-31 18:00:00.0","종로구"
"자체","S200112200816841869","시설대관","강당","접수중","종로구 무악동 자치회관 4층대강당","유료(요금안내문의)","무악동 주민센터 (무악동 자치회관)","제한없음","http://yeyak.seoul.go.kr/reservation/view.web?rsvsvcid=S200112200816841869","37.57599985913768","126.95815963393514","2020-01-13 00:00:00.0","2020-12-31 00:00:00.0","2020-01-13 09:00:00.0","2020-12-31 21:00:00.0","종로구"
"자체","S200113205725879212","시설대관","기타","접수중","종로구 무악동 주민센터 2층 제2강의실","유료(요금안내문의)","무악동 주민센터 (무악동 자치회관)","제한없음","http://yeyak.seoul.go.kr/reservation/view.web?rsvsvcid=S200113205725879212","37.57599985913768","126.95815963393514","2020-01-13 00:00:00.0","2020-12-31 00:00:00.0","2020-01-13 09:00:00.0","2020-12-31 18:00:00.0","종로구"
"자체","S200113210233906055","시설대관","기타","접수중","종로구 무악동 주민센터 2층 다목적실","유료(요금안내문의)","무악동 주민센터 (무악동 자치회관)","제한없음","http://yeyak.seoul.go.kr/reservation/view.web?rsvsvcid=S200113210233906055","37.57599985913768","126.95815963393514","2020-01-13 00:00:00.0","2020-12-31 00:00:00.0","2020-01-13 09:00:00.0","2020-12-31 18:00:00.0","종로구"
"자체","S191218110309374535","시설대관","다목적실","접수중","종로구 창신3동주민센터 3층 다목적실 대관","유료(요금안내문의)","창신3동 주민센터 3층 다목적실","제한없음","http://yeyak.seoul.go.kr/reservation/view.web?rsvsvcid=S191218110309374535","37.57795610088744","127.0147758321313","2019-12-18 00:00:00.0","2020-12-31 00:00:00.0","2019-12-18 09:00:00.0","2020-12-31 18:00:00.0","종로구"
"자체","S200102135524730731","시설대관","강당","접수중","종로구 사직동 자치회관 2층 강당","유료(요금안내문의)","사직동자치회관","제한없음","http://yeyak.seoul.go.kr/reservation/view.web?rsvsvcid=S200102135524730731","37.576068037021365","126.9688551620001","2020-01-02 00:00:00.0","2020-12-31 00:00:00.0","2020-01-02 09:00:00.0","2020-12-24 18:00:00.0","종로구"
"자체","S200102101358074616","시설대관","강당","접수중","종로구 교남동 자치회관 4층 강당","유료(요금안내문의)","교남동자치회관","제한없음","http://yeyak.seoul.go.kr/reservation/view.web?rsvsvcid=S200102101358074616","37.57191423295802","126.96196085343524","2020-01-02 00:00:00.0","2020-12-31 00:00:00.0","2020-01-02 09:00:00.0","2020-12-31 18:00:00.0","종로구"
"자체","S200102103008816784","시설대관","회의실","접수중","종로구 교남동자치회관 2층 회의실(취미교실B반)","유료(요금안내문의)","교남동자치회관","제한없음","http://yeyak.seoul.go.kr/reservation/view.web?rsvsvcid=S200102103008816784","37.57191423295802","126.96196085343524","2020-01-02 00:00:00.0","2020-12-31 00:00:00.0","2020-01-02 09:00:00.0","2020-12-31 18:00:00.0","종로구"
"자체","S200102103403809458","시설대관","회의실","접수중","종로구 교남동자치회관 2층 회의실(취미교실A반)","유료(요금안내문의)","교남동자치회관","제한없음","http://yeyak.seoul.go.kr/reservation/view.web?rsvsvcid=S200102103403809458","37.57191423295802","126.96196085343524","2020-01-02 00:00:00.0","2020-12-31 00:00:00.0","2020-01-02 09:00:00.0","2020-12-31 18:00:00.0","종로구"
"자체","S200103173302027957","시설대관","강당","접수중","종로구 청운효자동주민센터 3층 강당","유료(요금안내문의)","청운효자동주민센터 3층 강당","6세이상","http://yeyak.seoul.go.kr/reservation/view.web?rsvsvcid=S200103173302027957","37.58409093927406","126.97062252912833","2020-01-03 00:00:00.0","2020-12-31 00:00:00.0","2020-01-03 09:00:00.0","2020-12-31 18:00:00.0","종로구"
"자체","S191226132140078799","시설대관","기타","접수중","부암동 자치회관 2층 마을문고","유료(요금안내문의)","부암동주민센터 2층 마을문고","제한없음","http://yeyak.seoul.go.kr/reservation/view.web?rsvsvcid=S191226132140078799","37.592410692771274","126.96406554688714","2020-01-01 00:00:00.0","2020-12-31 00:00:00.0","2020-12-01 00:00:00.0","2020-12-31 00:00:00.0","종로구"
"자체","S200103164949799844","시설대관","다목적실","접수중","청운효자동 자치회관 5층 다목적실","유료(요금안내문의)","청운효자동자치회관 5층 다목적실","제한없음","http://yeyak.seoul.go.kr/reservation/view.web?rsvsvcid=S200103164949799844","37.58183089150602","126.96922410105563","2020-01-03 00:00:00.0","2020-12-31 00:00:00.0","2020-01-03 09:00:00.0","2020-12-31 18:00:00.0","종로구"
"연계","SEEDFIX-718","시설대관","다목적홀","연계","세운홀","유료","세운홀","제한없음","http://sewoon.org/sewoon-space/2809","","","","","2019-01-01 00:00:00.0","2019-12-31 00:00:00.0","종로구"
"연계","SEEDFIX-720","시설대관","녹화/촬영","연계","세운옥상","유료","세운옥상","제한없음","http://sewoon.org/sewoon-space/2805","","","","","2019-01-01 00:00:00.0","2019-12-31 00:00:00.0","종로구"
"연계","SEEDFIX-719","시설대관","광장","연계","다시세운광장","유료","다시세운광장","제한없음","http://sewoon.org/sewoon-space/2808","","","","","2019-01-01 00:00:00.0","2019-12-31 00:00:00.0","종로구"