"키","표기용 이름","행정 시","행정 구","행정 동","중심 좌표 X","중심 좌표 Y"
"BE_IW01-0085","market housing development","Seoul","Jung-gu","Hwanghak-dong","127.0204336493","37.5686101380"
"BE_IW01-0086","Insadong Culture Plaza","Seoul","Jongno-gu","Jongno1.2.3.4ga-dong","126.9873802368","37.5744028289"
"BE_IW01-0087","Hongik Univ Street of Art","Seoul","Mapo-gu","Daheung-dong","126.9379276799","37.5542409105"
"BE_IW01-0088","Sinchon Ewha Street","Seoul","Seodaemun-gu","Sinchon-dong","126.9465464425","37.5611107256"
"BE_IW01-0089","Gyedong-gil","Seoul","Jongno-gu","Gahoe-dong","126.9848066184","37.5826123840"
"BE_IW01-0090","Gwanak-gu design street","Seoul","Gwanak-gu","Jungang-dong","126.9489855680","37.4829408135"
"BE_IW01-0091","Geondae taste Street","Seoul","Gwangjin-gu","Hwayang-dong","127.0727360464","37.5433219294"
"BE_IW01-0092","Hwarangno fallen leaves street","Seoul","Nowon-gu","Gongneung2-dong","127.0876933570","37.6305927195"
"BE_IW01-0093","Rodeo Street","Seoul","Seongdong-gu","Yongdap-dong","127.0612932517","37.5536935109"
"BE_IW01-0094","Teenager Culture Street","Seoul","Yangcheon-gu","Mok5-dong","126.8758936853","37.5365973016"
"BE_IW01-0095","The street of peace","Seoul","Yangcheon-gu","Mok5-dong","126.8758936853","37.5365973016"
"BE_IW01-0096","Hemingway","Seoul","Seocho-gu","Banpo4-dong","127.0019000246","37.5046949142"
"BE_IW01-0097","Itaewon Solmaru","Seoul","Yongsan-gu","Hannam-dong","127.0059286959","37.5353973609"
"BE_IW01-0098","Seorae Villag Cafe Street","Seoul","Seocho-gu","Banpo4-dong","127.0019000246","37.5046949142"
"BE_IW01-0099","Samcheongdong-gil Road","Seoul","Jongno-gu","Samcheong-dong","126.9803912024","37.5828099517"
"BE_IW01-0100","Ihwa Village","Seoul","Jongno-gu","Ihwa-dong","127.0054112549","37.5771315908"
"BE_IW01-0101","Ahyeon Coin Alley","Seoul","Mapo-gu","Ahyeon-dong","126.9560892337","37.5546022525"
"BE_IW01-0102","Anyangcheon Beotkkot-gil","Seoul","Yeongdeungpo-gu","Yangpyeong1-dong","126.8886175026","37.5232030914"
"BE_IW01-0103","The street of studies","Seoul","Yangcheon-gu","Mok5-dong","126.8758936853","37.5365973016"
"BE_IW01-0104","Cheonho design street","Seoul","Gangdong-gu","Seongnae1-dong","127.1288976570","37.5304833863"
"BE_IW01-0105","Garosu-gild Road","Seoul","Gangnam-gu","Apgujeong-dong","127.0292316480","37.5238250318"
"BE_IW01-0106","Nagwond-dong","Seoul","Jongno-gu","Jongno1.2.3.4ga-dong","126.9873802368","37.5744028289"
"BE_IW01-0107","Hyeonchungno","Seoul","Dongjak-gu","Sadang2-dong","126.9736046405","37.5006879112"
"BE_IW01-0108","Jangchungdan-gil","Seoul","Jung-gu","Pil-dong","127.0005749663","37.5613859155"
"BE_IW01-0109","Hongneung-gil","Seoul","Dongdaemun-gu","Cheongnyangni-dong","127.0463896964","37.5881976109"
"BE_IW01-0110","Jewelry Street","Seoul","Jongno-gu","Jongno1.2.3.4ga-dong","126.9873802368","37.5744028289"
"BE_IW01-0111","Rodeo Street","Seoul","Gangnam-gu","Apgujeong-dong","127.0292316480","37.5238250318"
"BE_IW01-0112","Chodong-gil","Seoul","Jung-gu","Euljiro-dong","126.9976456492","37.5664098491"
"BE_IW01-0113","Dokkaebi Market","Seoul","Jung-gu","Hwanghak-dong","127.0204336493","37.5686101380"
"BE_IW01-0114","Cheongwadaeap-gil","Seoul","Jongno-gu","Cheongunhyoja-dong","126.9684554703","37.5896729314"
"BE_IW01-0115","food Village","Seoul","Gangbuk-gu","Insu-dong","127.0045998616","37.6370942943"
"BE_IW01-0116","The street of love","Seoul","Yangcheon-gu","Sinjeong6-dong","126.8629865421","37.5165771970"
"BE_IW01-0117","Seongbukdong-gil","Seoul","Seongbuk-gu","Seongbuk-dong","126.9921504705","37.5969208600"
"BE_IW01-0118","Namdaemun Braised Cutlassfish Alley","Seoul","Jung-gu","Hoehyeon-dong","126.9774324475","37.5580500713"
"BE_IW01-0119","The street of the scent of a flower and birdcall","Seoul","Yangcheon-gu","Mok5-dong","126.8758936853","37.5365973016"
"BE_IW01-0120","Dulle-gil course 1","Seoul","Gangbuk-gu","Insu-dong","127.0045998616","37.6370942943"
"BE_IW01-0121","Cheonggye Stream secondhand bookshop street","Seoul","Jung-gu","Gwanghui-dong","126.9959254377","37.5613498068"
"BE_IW01-0122","Skate Street","Seoul","Yeongdeungpo-gu","Singil4-dong","126.9115342551","37.5059772708"
"BE_IW01-0123","Rodeo Street","Seoul","Eunpyeong-gu","Galhyeon2-dong","126.9129160256","37.6209706338"
"BE_IW01-0124","Street of Light and communication","Seoul","Yangcheon-gu","Mok5-dong","126.8758936853","37.5365973016"
"BE_IW01-0125","Well-being Hwangto-gil","Seoul","Mapo-gu","Sangam-dong","126.8725938165","37.5714984223"
"BE_IW01-0126","Bugaksan-gil","Seoul","Jongno-gu","Pyeongchang-dong","126.9574021920","37.6178956805"
"BE_IW01-0127","The north side of Ring-Road","Seoul","Jung-gu","Gwanghui-dong","126.9959254377","37.5613498068"
"BE_IW01-0128","Chinatown","Seoul","Mapo-gu","Yeonnam-dong","126.9223460779","37.5631083128"
"BE_IW01-0129","Sinchon famous sundae","Seoul","Seodaemun-gu","Sinchon-dong","126.9465464425","37.5611107256"
"BE_IW01-0130","Dangni Korean Blood Sausag Soup","Seoul","Gangdong-gu","Myeongil2-dong","127.1496921479","37.5486842731"
"BE_IW01-0131","Sinuiju Korean Sausage with Sweet Rice","Seoul","Yeongdeungpo-gu","Dangsan1-dong","126.8984840296","37.5216802800"
"BE_IW01-0132","Korean Blood Sausage Soup of the Kims","Seoul","Seongdong-gu","Seongsu2ga1-dong","127.0581593864","37.5403675217"
"BE_IW01-0133","Pyeongchang-dong gallery","Seoul","Jongno-gu","Pyeongchang-dong","126.9574021920","37.6178956805"
"BE_IW01-0134","Ahyeon-dong Wedding Dress Street","Seoul","Seodaemun-gu","Chunghyeon-dong","126.9545535618","37.5637990488"
"BE_IW01-0001","Bugaksan-gil","Seoul","Jongno-gu","Buam-dong","126.9640836947","37.5923458269"
"BE_IW01-0002","Gangnam Station food alley","Seoul","Seocho-gu","Seocho1-dong","127.0164271437","37.4885117081"
"BE_IW01-0003","Dulle-gil Course 1","Seoul","Seongbuk-gu","Jeongneung3-dong","126.9973948722","37.6168942335"
"BE_IW01-0004","Mok-dong Rodeo Street","Seoul","Yangcheon-gu","Sinjeong6-dong","126.8629865421","37.5165771970"
"BE_IW01-0005","Doldam-gil","Seoul","Jung-gu","Sogong-dong","126.9799342986","37.5641304492"
"BE_IW01-0006","Rodeo Street","Seoul","Geumcheon-gu","Gasan-dong","126.8842347738","37.4750383160"
"BE_IW01-0007","Chinatown","Seoul","Gwanak-gu","Jungang-dong","126.9489855680","37.4829408135"
"BE_IW01-0008","Dulle-gil Course 3","Seoul","Jongno-gu","Pyeongchang-dong","126.9574021920","37.6178956805"
"BE_IW01-0009","Rodeo Street","Seoul","Gwangjin-gu","Jayang1-dong","127.0802146943","37.5319212362"
"BE_IW01-0010","Haemaji-gil","Seoul","Yongsan-gu","Hannam-dong","127.0059286959","37.5353973609"
"BE_IW01-0011","Chungmuro pet dog street","Seoul","Jung-gu","Gwanghui-dong","126.9959254377","37.5613498068"
"BE_IW01-0012","Teheran-ro","Seoul","Gangnam-gu","Yeoksam2-dong","127.0388891889","37.4998663454"
"BE_IW01-0013","Sagan-dong gallery Alley","Seoul","Jongno-gu","Samcheong-dong","126.9803912024","37.5828099517"
"BE_IW01-0014","Topokki alley","Seoul","Jung-gu","Cheonggu-dong","127.0131601160","37.5572550130"
"BE_IW01-0015","Bangi-dong motel village","Seoul","Songpa-gu","Oryun-dong","127.1264616960","37.5163186648"
"BE_IW01-0016","Daehak-ro street","Seoul","Jongno-gu","Ihwa-dong","127.0054112549","37.5771315908"
"BE_IW01-0017","Meokgeori Village","Seoul","Geumcheon-gu","Gasan-dong","126.8842347738","37.4750383160"
"BE_IW01-0018","Food market","Seoul","Jung-gu","Gwanghui-dong","126.9959254377","37.5613498068"
"BE_IW01-0019","Old nest Sullye-gil Road","Seoul","Seongbuk-gu","Dongseon-dong","127.0207811637","37.5971607572"
"BE_IW01-0020","Kwanchaellu Street","Seoul","Jung-gu","Myeong-dong","126.9788194313","37.5680585970"
"BE_IW01-0021","Sinuiju Korean Sausage with Sweet Rice","Seoul","Gangnam-gu","Nonhyeon2-dong","127.0311957909","37.5136359848"
"BE_IW01-0022","Metasequoia Road","Seoul","Mapo-gu","Sangam-dong","126.8725938165","37.5714984223"
"BE_IW01-0023","Expert paper street","Seoul","Jung-gu","Euljiro-dong","126.9976456492","37.5664098491"
"BE_IW01-0024","Seokchonhosu-gil","Seoul","Songpa-gu","Seokchon-dong","127.1040253187","37.5039643623"
"BE_IW01-0025","Munjeong-dong Rodeo Street","Seoul","Songpa-gu","Munjeong2-dong","127.1221039568","37.4854043468"
"BE_IW01-0026","caf? street","Seoul","Gangnam-gu","Apgujeong-dong","127.0292316480","37.5238250318"
"BE_IW01-0027","Pedestrian-Friendly Culture Street","Seoul","Gwanak-gu","Samseong-dong","126.9345984302","37.4632016047"
"BE_IW01-0028","Yongsan Pork Back-bone Stew Road","Seoul","Yongsan-gu","Hangangno-dong","126.9730641438","37.5319454062"
"BE_IW01-0029","Central Asia Village","Seoul","Jung-gu","Gwanghui-dong","126.9959254377","37.5613498068"
"BE_IW01-0030","Finance corps street","Seoul","Yongsan-gu","Itaewon2-dong","126.9917039530","37.5389940121"
"BE_IW01-0031","Eulji Hanbit Street","Seoul","Jung-gu","Myeong-dong","126.9788194313","37.5680585970"
"BE_IW01-0032","Chengdam-dong luxury street","Seoul","Gangnam-gu","Cheongdam-dong","127.0523782445","37.5254064028"
"BE_IW01-0033","Dulle-gil course 3","Seoul","Eunpyeong-gu","Jingwan-dong","126.9340959558","37.6386797307"
"BE_IW01-0034","Yeouiseoro","Seoul","Yeongdeungpo-gu","Yeoui-dong","126.9294280442","37.5283125747"
"BE_IW01-0035","Hangang River cycle lane(Gwangnaru Area)","Seoul","Gangdong-gu","Amsa3-dong","127.1308327064","37.5579256806"
"BE_IW01-0036","Agujjim Alley","Seoul","Seocho-gu","Jamwon-dong","127.0090625635","37.5150813630"
"BE_IW01-0037","Jangsu-gil","Seoul","Seongbuk-gu","Dongseon-dong","127.0207811637","37.5971607572"
"BE_IW01-0038","Dulle-gile course 2","Seoul","Seongbuk-gu","Seongbuk-dong","126.9921504705","37.5969208600"
"BE_IW01-0039","Sullye-gil course","Seoul","Gangbuk-gu","Insu-dong","127.0045998616","37.6370942943"
"BE_IW01-0040","The Street of hometown","Seoul","Yangcheon-gu","Sinjeong6-dong","126.8629865421","37.5165771970"
"BE_IW01-0041","Wangsimni Gopchang Alley","Seoul","Jung-gu","Hwanghak-dong","127.0204336493","37.5686101380"
"BE_IW01-0042","Seoul Sillim-dong folklore sundae town","Seoul","Gwanak-gu","Samseong-dong","126.9345984302","37.4632016047"
"BE_IW01-0043","Ewha second-hand Alley","Seoul","Seodaemun-gu","Sinchon-dong","126.9465464425","37.5611107256"
"BE_IW01-0044","Pimatgol Alley","Seoul","Jongno-gu","Jongno1.2.3.4ga-dong","126.9873802368","37.5744028289"
"BE_IW01-0045","Byeongcheon folk sundae","Seoul","Gangdong-gu","Gil-dong","127.1470468799","37.5385603718"
"BE_IW01-0046","Neungdongno","Seoul","Gwangjin-gu","Neung-dong","127.0824623102","37.5510497104"
"BE_IW01-0047","Street of festival","Seoul","Yangcheon-gu","Mok5-dong","126.8758936853","37.5365973016"
"BE_IW01-0048","Bangbae-dong caf? street","Seoul","Seocho-gu","Bangbae3-dong","126.9940983899","37.4787998297"
"BE_IW01-0049","Myeong-dong street","Seoul","Jung-gu","Myeong-dong","126.9788194313","37.5680585970"
"BE_IW01-0050","Yongam Pork Back-bone Stew Alley","Seoul","Eunpyeong-gu","Eungam3-dong","126.9217039604","37.5926424720"
"BE_IW01-0051","Car accessories street","Seoul","Seongdong-gu","Yongdap-dong","127.0612932517","37.5536935109"
"BE_IW01-0052","caf? Alley","Seoul","Jongno-gu","Ihwa-dong","127.0054112549","37.5771315908"
"BE_IW01-0053","Soy Sause Marinated Crab Alley","Seoul","Seocho-gu","Jamwon-dong","127.0090625635","37.5150813630"
"BE_IW01-0054","fortune reading caf? street","Seoul","Seodaemun-gu","Sinchon-dong","126.9465464425","37.5611107256"
"BE_IW01-0055","fishing-tackle street","Seoul","Jung-gu","Hoehyeon-dong","126.9774324475","37.5580500713"
"BE_IW01-0056","Bangbae Station food alley","Seoul","Seocho-gu","Bangbae3-dong","126.9940983899","37.4787998297"
"BE_IW01-0057","Bongcheon-dong food Alley","Seoul","Gwanak-gu","Jungang-dong","126.9489855680","37.4829408135"
"BE_IW01-0058","Mugyo-dong food street","Seoul","Jung-gu","Myeong-dong","126.9788194313","37.5680585970"
"BE_IW01-0059","Majang-dong food alley","Seoul","Seongdong-gu","Majang-dong","127.0406898450","37.5670083299"
"BE_IW01-0060","Samcheong-dong Street","Seoul","Jongno-gu","Samcheong-dong","126.9803912024","37.5828099517"
"BE_IW01-0061","Metropolis street","Seoul","Mapo-gu","Sangam-dong","126.8725938165","37.5714984223"
"BE_IW01-0062","Stationery Toy Street","Seoul","Gangdong-gu","Cheonho2-dong","127.1266790476","37.5431790738"
"BE_IW01-0063","Furniture Street","Seoul","Seodaemun-gu","Chunghyeon-dong","126.9545535618","37.5637990488"
"BE_IW01-0064","Bulgwangdong food alley","Seoul","Eunpyeong-gu","Bulgwang1-dong","126.9353908377","37.6192011241"
"BE_IW01-0065","The street of wind","Seoul","Yangcheon-gu","Mok5-dong","126.8758936853","37.5365973016"
"BE_IW01-0066","The Tomb of Patriotic Martyr","Seoul","Gangbuk-gu","Insu-dong","127.0045998616","37.6370942943"
"BE_IW01-0067","The street of Eoullim","Seoul","Yangcheon-gu","Sinjeong6-dong","126.8629865421","37.5165771970"
"BE_IW01-0068","Bugaksan-gil","Seoul","Jongno-gu","Pyeongchang-dong","126.9574021920","37.6178956805"
"BE_IW01-0069","Bugaksan-gil","Seoul","Jongno-gu","Cheongunhyoja-dong","126.9684554703","37.5896729314"
"BE_IW01-0070","Hangang River cycle lane(Gangseo Area)","Seoul","Gangseo-gu","Banghwa3-dong","126.8133225984","37.5773373025"
"BE_IW01-0071","Itaewon street","Seoul","Yongsan-gu","Itaewon2-dong","126.9917039530","37.5389940121"
"BE_IW01-0072","Jeongdong-gil","Seoul","Jung-gu","Sogong-dong","126.9799342986","37.5641304492"
"BE_IW01-0073","Kyunghee Univ pajeon Alley","Seoul","Dongdaemun-gu","Hwigyeong2-dong","127.0625992198","37.5888316341"
"BE_IW01-0074","Gyeongbokgung Palace back street","Seoul","Jongno-gu","Sajik-dong","126.9726262878","37.5783899330"
"BE_IW01-0075","Byeolgung-gil","Seoul","Jongno-gu","Samcheong-dong","126.9803912024","37.5828099517"
"BE_IW01-0076","Nonhyeondong cart bar Alley","Seoul","Gangnam-gu","Nonhyeon2-dong","127.0311957909","37.5136359848"
"BE_IW01-0077","The Philippines Street","Seoul","Jongno-gu","Jongno1.2.3.4ga-dong","126.9929898185","37.5819896661"
"BE_IW01-0078","Gongdeok-dong  Pig's feet Alley","Seoul","Mapo-gu","Ahyeon-dong","126.9560892337","37.5546022525"
"BE_IW01-0079","Cheonho-dong","Seoul","Gangdong-gu","Cheonho2-dong","127.1266790476","37.5431790738"
"BE_IW01-0080","Comme des Garoons steet","Seoul","Yongsan-gu","Hannam-dong","127.0059286959","37.5353973609"
"BE_IW01-0081","Baked fish Alley","Seoul","Jongno-gu","Jongno5.6ga-dong","127.0001901776","37.5736899154"
"BE_IW01-0082","Chinatown","Seoul","Yeongdeungpo-gu","Daerim3-dong","126.9012770519","37.4967500548"
"BE_IW01-0083","Chinatown","Seoul","Guro-gu","Garibong-dong","126.8873071257","37.4828332110"
"BE_IW01-0084","Chinatown","Seoul","Gwangjin-gu","Jayang1-dong","127.0802146943","37.5319212362"